{
    "notebook.formatOnSave.enabled": true,
    "notebook.codeActionsOnSave": {
        "notebook.source.fixAll": "explicit",
        "notebook.source.organizeImports": "explicit"
    },
    "[python]": {
        "editor.formatOnSave": true,
        "editor.defaultFormatter": "charliermarsh.ruff",
        "editor.codeActionsOnSave": {
            "source.fixAll": "explicit",
            "source.organizeImports": "explicit"
        }
    },
    "cSpell.userWords": [
        "charliermarsh"
    ],
    "window.confirmSaveUntitledWorkspace": false,
    "git.enableSmartCommit": true,
    "editor.fontWeight": "normal"
    
}